%YAML 1.1
%TAG !u! tag:unity3d.com,2011:
--- !u!114 &11400000
MonoBehaviour:
  m_ObjectHideFlags: 0
  m_CorrespondingSourceObject: {fileID: 0}
  m_PrefabInstance: {fileID: 0}
  m_PrefabAsset: {fileID: 0}
  m_GameObject: {fileID: 0}
  m_Enabled: 1
  m_EditorHideFlags: 0
  m_Script: {fileID: 11500000, guid: 6f71bd82182ea6f409c643314dad96c0, type: 3}
  m_Name: Boxes1
  m_EditorClassIdentifier: 
  box:
  - contents:
    - ingredient: {fileID: 11400000, guid: a9d89718ee4a7da458e393002bfd84a2, type: 2}
      Amount: 5
    - ingredient: {fileID: 11400000, guid: 3f3f150b69049304ca7b4115e0897227, type: 2}
      Amount: 10
    - ingredient: {fileID: 11400000, guid: 5d238bc364a22f3448b1b78f4bf7a70a, type: 2}
      Amount: 4
    ListOfIngredients: "08X \xD3leo\r\n10X A\xE7\xFAcar\r\n04X Coco Ralado\r"
  - contents:
    - ingredient: {fileID: 11400000, guid: 8584a7f680105cb49800539d638dc579, type: 2}
      Amount: 17
    - ingredient: {fileID: 11400000, guid: a80543938c728d0429509d7179152966, type: 2}
      Amount: 3
    - ingredient: {fileID: 11400000, guid: 22262618c65e62f4ba83ca7b9c47f2b5, type: 2}
      Amount: 13
    ListOfIngredients: "17X Milho de pipoca\r\n03X Copo de \xE1gua\r\n13X Milho"
  - contents:
    - ingredient: {fileID: 11400000, guid: a0b8106dbe9865a4e8df1082e0d762a1, type: 2}
      Amount: 5
    - ingredient: {fileID: 11400000, guid: 69e2b188d2511d94590115c888dd503c, type: 2}
      Amount: 12
    ListOfIngredients: "05X Canela em p\xF3\r\n12X Leite"
