%YAML 1.1
%TAG !u! tag:unity3d.com,2011:
--- !u!114 &11400000
MonoBehaviour:
  m_ObjectHideFlags: 0
  m_CorrespondingSourceObject: {fileID: 0}
  m_PrefabInstance: {fileID: 0}
  m_PrefabAsset: {fileID: 0}
  m_GameObject: {fileID: 0}
  m_Enabled: 1
  m_EditorHideFlags: 0
  m_Script: {fileID: 11500000, guid: 499c514ad1887134d932b4f824b86b24, type: 3}
  m_Name: Sound
  m_EditorClassIdentifier: 
  sounds:
  - nameClip: Button
    clip: {fileID: 8300000, guid: 3eccb3ab15e11ca4faef610275ad026a, type: 3}
  - nameClip: HitSlot
    clip: {fileID: 8300000, guid: dfea1ed4df88de8488c481eeef25fa77, type: 3}
  - nameClip: Menu
    clip: {fileID: 8300000, guid: d11f02b616b5d8646b1f260de80bd55f, type: 3}
